DataSci for Lang & Mind – Week 15: Multilevel models
…
Is independence violated?

lexdec %>% 
  group_by(Subject) %>% 
  tally()

# A tibble: 21 × 2
   Subject     n
   <fct>   <int>
 1 A1         79
 2 A2         79
 3 A3         79
 4 C          79
 5 D          79
 6 I          79
 7 J          79
 8 K          79
 9 M1         79
10 M2         79
# ℹ 11 more rows
…
